{
  "$schema": "http://json.schemastore.org/launchsettings.json",
  "profiles": {
    "HotelManagementSystem": {
      "commandName": "Project",
      "environmentVariables": {
        "ASPNETCORE_ENVIRONMENT": "Development",
        "FileInput": "../../../input.txt"
      }
    }
  }
}
